com\mycompany\associacaoweb\controllergenerics\GenericCommander.class
com\mycompany\associacaoweb\servelt\centralServlet.class
com\mycompany\associacaoweb\model\dao\DaoBase.class
com\mycompany\associacaoweb\model\ingresso.class
mycompany\associacaoweb\action\CadastroAction.class
mycompany\associacaoweb\action\LoginVerifyAction.class
com\mycompany\associacaoweb\model\Usuario.class
mycompany\associacaoweb\action\ViewLoginAction.class
com\mycompany\associacaoweb\model\dao\UsuarioDao.class
com\mycompany\associacaoweb\model\Usuario_.class
com\mycompany\associacaoweb\model\evento.class
com\mycompany\associacaoweb\testebanco\TesteBanco.class
com\mycompany\associacaoweb\model\assento.class
com\mycompany\associacaoweb\model\tipo_assento.class
com\mycompany\associacaoweb\model\tipo_evento.class
